<?xml version="1.0" encoding="utf-8"?>
<!-- Generator: Adobe Illustrator 19.0.0, SVG Export Plug-In . SVG Version: 6.00 Build 0)  -->
<svg version="1.1" id="Layer_1" xmlns="http://www.w3.org/2000/svg" xmlns:xlink="http://www.w3.org/1999/xlink" x="0px" y="0px"
	 viewBox="0 0 16 16" style="enable-background:new 0 0 16 16;" xml:space="preserve">
<path id="XMLID_10_" d="M14,0H9H7H2H0v2v5v2v5v2h2h5h2h5h2v-2V9V7V2V0H14z M2,2h5v5H2V2z M2,14V9h5v5H2z M14,14H9V9h5V14z M14,7H9V2
	h5V7z"/>
</svg>
